\version "2.9.6"
\markup{ \fill-line{ \column {
  \hspace #1
  \hspace #1
  \hspace #1
  \hspace #1
  \hspace #1
  \hspace #1
  \hspace #1
  \hspace #1
  \hspace #1
  \hspace #1
  \hspace #1
  \hspace #1
  \line\italic{ 
    (this page has been left blank to facilitate page turning) 
  }
}
}
}